PortfolioOptimisation.jl Tutorial: · PortfolioOptimiser.jl
…
prices = get_prices(assets)

1008×25 TimeSeries.TimeArray{Float64, 2, Dates.Date, Matrix{Float64}} 2019-01-02 to 2022-12-30
┌────────────┬─────────┬─────────┬─────────┬──────┬─────────┬─────────┬─────────
│            │ AAL     │ AAPL    │ AMC     │ BB   │ BBY     │ DELL    │ DG     ⋯
├────────────┼─────────┼─────────┼─────────┼──────┼─────────┼─────────┼─────────
│ 2019-01-02 │ 31.9632 │ 37.7501 │ 119.143 │ 7.11 │ 44.0813 │  22.371 │ 101.37 ⋯
│ 2019-01-03 │ 29.5817 │ 33.9899 │ 120.715 │ 6.88 │ 43.1767 │ 21.4262 │   101. ⋯
│ 2019-01-04 │ 31.5302 │ 35.4409 │ 125.151 │ 7.23 │ 43.3823 │ 21.8487 │ 102.37 ⋯
│ 2019-01-07 │ 32.4257 │  35.362 │ 130.512 │ 7.43 │ 45.8577 │ 21.9911 │ 106.58 ⋯
│ 2019-01-08 │ 31.9041 │ 36.0361 │ 134.672 │ 7.41 │ 47.2065 │ 22.2523 │ 107.09 ⋯
│ 2019-01-09 │ 32.8882 │ 36.6481 │ 128.941 │ 7.47 │ 47.5601 │ 22.2855 │   109. ⋯
│ 2019-01-10 │ 31.5302 │ 36.7652 │ 126.907 │ 7.52 │ 46.7706 │ 21.4547 │ 109.96 ⋯
│ 2019-01-11 │  31.294 │ 36.4043 │  129.68 │ 7.57 │ 46.4746 │ 21.1128 │ 109.52 ⋯
│     ⋮      │    ⋮    │    ⋮    │    ⋮    │  ⋮   │    ⋮    │    ⋮    │    ⋮   ⋱
│ 2022-12-21 │   13.03 │ 134.188 │    53.0 │ 3.75 │ 75.0778 │ 37.5464 │ 238.10 ⋯
│ 2022-12-22 │   12.56 │ 130.998 │    49.1 │ 3.43 │ 74.9195 │ 37.5656 │ 239.07 ⋯
│ 2022-12-23 │   12.71 │ 130.631 │    44.0 │  3.4 │ 75.7483 │ 37.5464 │ 241.03 ⋯
│ 2022-12-27 │   12.53 │ 128.818 │    40.3 │ 3.29 │ 76.2232 │ 37.8247 │ 240.66 ⋯
│ 2022-12-28 │   12.32 │ 124.866 │    38.4 │ 3.18 │ 74.6495 │ 37.2009 │ 238.56 ⋯
│ 2022-12-29 │    12.7 │ 128.402 │    41.4 │ 3.26 │ 75.6458 │ 38.2182 │ 241.48 ⋯
│ 2022-12-30 │   12.72 │ 128.719 │    40.7 │ 3.26 │ 74.6868 │ 38.6022 │ 240.30 ⋯
└────────────┴─────────┴─────────┴─────────┴──────┴─────────┴─────────┴─────────
                                                 19 columns and 993 rows omitted
…
