Example 0: Not financial advice · PortfolioOptimiser.jl
…
assets = ["AAL", "AAPL", "AMC", "BB", "BBY", "DELL", "DG", "DRS", "GME", "INTC", "LULU",
          "MARA", "MCI", "MSFT", "NKLA", "NVAX", "NVDA", "PARA", "PLNT", "SAVE", "SBUX",
          "SIRI", "STX", "TLRY", "TSLA"]
Date_0 = "2019-01-01"
Date_1 = "2023-01-01"
prices = get_prices.(assets; startdt = Date_0, enddt = Date_1)
prices = stock_price_to_time_array.(prices)
prices = hcat(prices...)
cidx = colnames(prices)[occursin.(r"adj", string.(colnames(prices)))]
prices = prices[cidx]
TimeSeries.rename!(prices, Symbol.(assets))

1008×25 TimeSeries.TimeArray{Float64, 2, Dates.DateTime, Matrix{Float64}} 2019-01-02T14:30:00 to 2022-12-30T14:30:00
┌─────────────────────┬─────────┬─────────┬─────────┬──────┬─────────┬──────────
│                     │ AAL     │ AAPL    │ AMC     │ BB   │ BBY     │ DELL    ⋯
├─────────────────────┼─────────┼─────────┼─────────┼──────┼─────────┼──────────
│ 2019-01-02T14:30:00 │ 31.9632 │ 37.7501 │ 119.143 │ 7.11 │ 43.6631 │ 22.2917 ⋯
│ 2019-01-03T14:30:00 │ 29.5817 │ 33.9899 │ 120.715 │ 6.88 │  42.767 │ 21.3503 ⋯
│ 2019-01-04T14:30:00 │ 31.5302 │ 35.4409 │ 125.151 │ 7.23 │ 42.9707 │ 21.7713 ⋯
│ 2019-01-07T14:30:00 │ 32.4257 │  35.362 │ 130.512 │ 7.43 │ 45.4226 │ 21.9133 ⋯
│ 2019-01-08T14:30:00 │ 31.9041 │ 36.0361 │ 134.672 │ 7.41 │ 46.7586 │ 22.1735 ⋯
│ 2019-01-09T14:30:00 │ 32.8882 │ 36.6481 │ 128.941 │ 7.47 │ 47.1089 │ 22.2066 ⋯
│ 2019-01-10T14:30:00 │ 31.5302 │ 36.7652 │ 126.907 │ 7.52 │ 46.3269 │ 21.3787 ⋯
│ 2019-01-11T14:30:00 │  31.294 │ 36.4043 │  129.68 │ 7.57 │ 46.0336 │ 21.0381 ⋯
│          ⋮          │    ⋮    │    ⋮    │    ⋮    │  ⋮   │    ⋮    │    ⋮    ⋱
│ 2022-12-21T14:30:00 │   13.03 │ 134.188 │    53.0 │ 3.75 │ 74.3655 │ 37.4134 ⋯
│ 2022-12-22T14:30:00 │   12.56 │ 130.998 │    49.1 │ 3.43 │ 74.2087 │ 37.4326 ⋯
│ 2022-12-23T14:30:00 │   12.71 │ 130.631 │    44.0 │  3.4 │ 75.0295 │ 37.4134 ⋯
│ 2022-12-27T14:30:00 │   12.53 │ 128.818 │    40.3 │ 3.29 │ 75.4999 │ 37.6908 ⋯
│ 2022-12-28T14:30:00 │   12.32 │ 124.866 │    38.4 │ 3.18 │ 73.9412 │ 37.0691 ⋯
│ 2022-12-29T14:30:00 │    12.7 │ 128.402 │    41.4 │ 3.26 │ 74.9281 │ 38.0829 ⋯
│ 2022-12-30T14:30:00 │   12.72 │ 128.719 │    40.7 │ 3.26 │ 73.9781 │ 38.4654 ⋯
└─────────────────────┴─────────┴─────────┴─────────┴──────┴─────────┴──────────
                                                 19 columns and 993 rows omitted
…
